…
CYP3A4  CYP3A4   4054   203839008 protein
MTOR      MTOR   3611   121954918 protein
MET        MET   2878   140140360 protein
AKT1      AKT1   2796   155948776 protein
> 
> # Answering RQ4
> 
> co_targeted <- drug_targets %>%
+   group_by(gene_symbol) %>%
+   summarise(Num_Drugs = n_distinct(ChEMBL_ID)) %>%
+   filter(Num_Drugs > 1) %>%
+   arrange(desc(Num_Drugs))
> 
> print(co_targeted)
# A tibble: 28 × 2
   gene_symbol Num_Drugs
   <chr>           <int>
 1 KDR              7482
 2 EGFR             5909
 3 GSK3B            4773
 4 JAK2             4562
 5 PIK3CA           4135
 6 HDAC1            4074
 7 CYP3A4           4054
 8 MTOR             3605
 9 MET              2871
10 AKT1             2781
# ℹ 18 more rows
# ℹ Use `print(n = ...)` to see more rows
…
